{
  "turquoise": "#1ABC9C",
  "greenSea": "#16A085",
  "emerald": "#2ECC71",
  "nephritis": "#27AE60",
  "peterRiver": "#3498DB",
  "belizeHole": "#2980B9",
  "amethyst": "#9B59B6",
  "wisteria": "#8E44AD",
  "wetAsphalt": "#34495E",
  "midnightBlue": "#2C3E50",
  "sunFlower": "#F1C40F",
  "orange": "#F39C12",
  "carrot": "#E67E22",
  "pumpkin": "#D35400",
  "alizarin": "#E74C3C",
  "pomegranate": "#C0392B",
  "clouds": "#ECF0F1",
  "silver": "#BDC3C7",
  "concrete": "#95A5A6",
  "asbestos": "#7F8C8D",

  "blueNights": "#2F3640",
  "shadowedSteel": "#4B4B4B",
  "salem": "#1E824C",
  "electromagnetic": "#2f3640",
  "pixelatedGrass": "#009432",
  "taupe": "#87794",

  "sourLemon": "#ffeaa7",
  "brightYarrow": "#fdcb6e"
}