[
  {
    "group": "Apps",
    "description": "",
    "name1": "Down Dog",
    "name2": "",
    "sorting": 0,
    "teacher": "",
    "url": "https://www.downdogapp.com/web"
  },
  {
    "group": "Asana Study",
    "description": "",
    "name1": "Downward Facing Dog",
    "name2": "Alignment",
    "sorting": 0,
    "teacher": "Brett Larkin",
    "url": "https://www.youtube.com/embed/N4hhM2D3s3I"
  },
  {
    "group": "Asana Study",
    "description": "",
    "name1": "Downward Facing Dog",
    "name2": "Arm Position",
    "sorting": 0,
    "teacher": "Matt Giordano",
    "url": "https://www.youtube.com/embed/jt6-ju49FkQ"
  },
  {
    "group": "Asana Study",
    "description": "",
    "name1": "Downward Facing Dog",
    "name2": "Arm Position",
    "sorting": 0,
    "teacher": "Yoga Vibes",
    "url": "https://www.youtube.com/embed/TKuQBOseUbU"
  },
  {
    "group": "Asana Study",
    "description": "",
    "name1": "Headstand",
    "name2": "",
    "sorting": 0,
    "teacher": "David Garrigues",
    "url": "https://www.youtube.com/embed/yO_S0Hk_tgI"
  },
  {
    "group": "Asana Study",
    "description": "",
    "name1": "Headstand",
    "name2": "Avoid Neck Pain",
    "sorting": 1,
    "teacher": "Matt Giordano",
    "url": "https://www.youtube.com/embed/MJoJGiOx9Uc"
  },
  {
    "group": "Asana Study",
    "description": "",
    "name1": "Headstand",
    "name2": "3 Ways In",
    "sorting": 2,
    "teacher": "Matt Giordano",
    "url": "https://www.youtube.com/embed/16lCO0ZWNMo"
  },
  {
    "group": "Asana Study",
    "description": "",
    "name1": "Kapotasana",
    "name2": "",
    "sorting": 3,
    "teacher": "Janice Liou",
    "url": "https://www.youtube.com/embed/ExPyfkJfCe8"
  },
  {
    "group": "Asana Study",
    "description": "",
    "name1": "King Pigeon",
    "name2": "",
    "sorting": 4,
    "teacher": "Stylecraze Yoga",
    "url": "https://www.youtube.com/embed/cejAR0bvf9g"
  },
  {
    "group": "Asana Study",
    "description": "",
    "name1": "Lotus",
    "name2": "",
    "sorting": 5,
    "teacher": "Purple Valley Ashtanga Yoga",
    "url": "https://www.youtube.com/embed/vtBLuv4IMOM"
  },
  {
    "group": "Asana Study",
    "description": "",
    "name1": "Reclining Splits",
    "name2": "Going Deeper",
    "sorting": 6,
    "teacher": "Kino MacGregor",
    "url": "https://www.youtube.com/embed/2QbPAs2ozq8"
  },
  {
    "group": "Asana Study",
    "description": "",
    "name1": "Wide Legged Forward Fold",
    "name2": "",
    "sorting": 7,
    "teacher": "Kino MacGregor",
    "url": "https://www.youtube.com/embed/xvzerITygRM"
  },
  {
    "group": "10 Min Flows",
    "description": "",
    "name1": "Easy Flow",
    "name2": "",
    "sorting": 0,
    "teacher": "Paula Lay",
    "url": "https://www.youtube.com/embed/D9q5WsMk4ro"
  },
  {
    "group": "15 Min Flows",
    "description": "",
    "name1": "Balance",
    "name2": "",
    "sorting": 0,
    "teacher": "Paula Lay",
    "url": "https://www.youtube.com/embed/0q0bkXOjwDQ"
  },
  {
    "group": "15 Min Flows",
    "description": "",
    "name1": "Beginner Arm Balances",
    "name2": "",
    "sorting": 1,
    "teacher": "Kino MacGregor",
    "url": "https://www.youtube.com/embed/9eUNaaGXOZ4"
  },
  {
    "group": "20 Min Flows",
    "description": "",
    "name1": "Easy Flow",
    "name2": "",
    "sorting": 0,
    "teacher": "Paula Lay",
    "url": "https://www.youtube.com/embed/LY_a5Rr6aUo"
  },
  {
    "group": "20 Min Flows",
    "description": "",
    "name1": "Chakra Balancing 1.6",
    "name2": "Third Eye",
    "sorting": 1,
    "teacher": "Julia Jarvis",
    "url": "https://www.amazon.com/gp/video/detail/B06XRRMFGR/ref=stream_prime_hd_ep?autoplay=1&t=53"
  },
  {
    "group": "20 Min Flows",
    "description": "",
    "name1": "30 Days",
    "name2": "5: Power Yoga",
    "sorting": 2,
    "teacher": "Jess Timsit",
    "url": "https://www.amazon.com/gp/video/detail/B075JGVQ37/ref=atv_dl_rdr?autoplay=1"
  },
  {
    "group": "30 Min Flows",
    "description": "",
    "name1": "Chakra Balancing 1.1",
    "name2": "Muladhara",
    "sorting": 0,
    "teacher": "Julia Jarvis",
    "url": "https://www.amazon.com/gp/video/detail/B06XRJFN76/ref=stream_prime_hd_ep?autoplay=1&t=96"
  },
  {
    "group": "30 Min Flows",
    "description": "Wake Up & Feel Amazing",
    "name1": "Easy Yoga Sequence",
    "name2": "",
    "sorting": 1,
    "teacher": "Matt Giordano",
    "url": "https://www.youtube.com/embed/UQnF7jedAok"
  },
  {
    "group": "30 Min Flows",
    "description": "",
    "name1": "30 Days",
    "name2": "12: Backbends",
    "sorting": 2,
    "teacher": "Jess Timsit",
    "url": "https://www.amazon.com/gp/video/detail/B075JGVQ37/ref=atv_dl_rdr?autoplay=1"
  },
  {
    "group": "40 Min Flows",
    "description": "",
    "name1": "Arm Balances & Inversions",
    "name2": "",
    "sorting": 0,
    "teacher": "Allie Van Fossen",
    "url": "https://www.youtube.com/embed/818JjW3uPsw"
  },
  {
    "group": "Techniques",
    "description": "",
    "name1": "Arm Balance Tips",
    "name2": "",
    "sorting": 0,
    "teacher": "Matt Giordano",
    "url": "https://www.youtube.com/embed/B7dhV8ggPNE"
  },
  {
    "group": "Techniques",
    "description": "",
    "name1": "Avoid the Yogi Butt",
    "name2": "",
    "sorting": 1,
    "teacher": "Matt Giordano",
    "url": "https://www.youtube.com/embed/JS9zWjHv2r0"
  },
  {
    "group": "Techniques",
    "description": "",
    "name1": "Jump Through",
    "name2": "",
    "sorting": 2,
    "teacher": "Kino MacGregor",
    "url": "https://www.youtube.com/embed/tJcXQaqhKE4"
  },
  {
    "group": "Techniques",
    "description": "",
    "name1": "Drop Back",
    "name2": "",
    "sorting": 3,
    "teacher": "David Garrigues",
    "url": "https://www.youtube.com/embed/5gkiosE3UeU"
  },
  {
    "group": "Techniques",
    "description": "",
    "name1": "Straddle Splits Yoga Wall Stretch",
    "name2": "",
    "sorting": 4,
    "teacher": "Kino MacGregor",
    "url": "https://www.youtube.com/embed/qi5wlLT-tUo"
  },
  {
    "group": "Workshops",
    "description": "",
    "name1": "L",
    "name2": "Sit Core Strength",
    "sorting": 0,
    "teacher": "Kino MacGregor",
    "url": "https://www.youtube.com/embed/5Pgfexjfb20"
  },
  {
    "group": "Workshops",
    "description": "",
    "name1": "Dance with the Flames",
    "name2": "",
    "sorting": 1,
    "teacher": "Matt Giordano",
    "url": "https://www.theyogimatt.com/dance-with-flames-video/"
  },
  {
    "group": "Workshops",
    "description": "",
    "name1": "Hips: Rock and Unlock 'Em",
    "name2": "",
    "sorting": 2,
    "teacher": "Matt Giordano",
    "url": "https://www.theyogimatt.com/hips-workshop/"
  }
]